{"data":[{"id":2,"attributes":{"title":"STARTUP STAGE: CHAIN4TRAVEL PREPARES TO LAUNCH BLOCKCHAIN RUN BY TRAVEL INDUSTRY","linkToArticle":"https://www.phocuswire.com/chain4travel-blockchain-travel-partners","articleTeaser":"Founded by Peakwork CEO Ralf Usbeck, Chain4Travel is the facilitator of the Camino consortium blockchain and has more than 50 supporters from the travel industry. Travel companies can join the presale of the Camino token until Sept. 23.","createdAt":"2023-04-04T15:13:42.065Z","updatedAt":"2023-05-04T15:57:45.034Z","publishedAt":"2023-04-04T15:13:43.335Z","date":"2022-08-26","mediaOutlet":"Phocuswire"}},{"id":3,"attributes":{"title":"Swiss travel startup Chain4Travel raises $4.5 million for blockchain: travel startup funding this week","linkToArticle":"https://biz.crast.net/swiss-travel-startup-chain4travel-raises-4-5-million-for-blockchain-travel-startup-funding-this-week/","articleTeaser":"Chain4Travel raised funds to promote blockchain-based travel sales, but the track record of success is short and the technology now used by travel agencies has yet to prove its comparative advantage.","createdAt":"2023-04-04T16:11:19.391Z","updatedAt":"2023-05-04T15:59:02.955Z","publishedAt":"2023-04-04T16:11:23.688Z","date":"2022-05-27","mediaOutlet":"Business News"}},{"id":4,"attributes":{"title":"CHAIN4TRAVEL, FOUNDED BY THREE VETERANS, RAISES SFR4.3M TO BUILD BLOCKCHAIN PLATFORM","linkToArticle":"https://www.webintravel.com/chain4travel-founded-by-three-veterans-raises-sfr4-3m-to-build-blockchain-platform/","articleTeaser":"Chain4Travel, founded by three travel veterans, has raised seed funding of Sfr4.3 million for the development of its blockchain-based travel platform, known as Camino, as well as chase growth for the company.\n\nThe Switzerland-based business combines the experience and expertise of Ralf Usbeck, who previously founded TravelTainment and Peakwork, Thomas Stirnimann, former CEO of Hotelplan, and Pablo Castillo, former CIO of Hotelplan.","createdAt":"2023-04-04T16:12:15.193Z","updatedAt":"2023-05-04T15:41:09.799Z","publishedAt":"2023-04-04T16:12:21.142Z","date":"2022-05-26","mediaOutlet":"Web in travel"}},{"id":5,"attributes":{"title":"Chain4Travel lands £3.6M in funding for blockchain platform","linkToArticle":"https://blockchainusa.tech/index.php/2022/05/25/chain4travel-lands-3-6m-in-funding-for-blockchain-platform/","articleTeaser":"Chain4Travel has raised seed funding of £3.6 million for the event of its blockchain-based journey platform, generally known as Camino.\nThe Switzerland-based enterprise was launched by Ralf Usbeck, who beforehand based TravelTainment and Peakwork, Thomas Stirnimann, former CEO of Hotelplan, and Pablo Castillo, former CIO of Hotelplan.","createdAt":"2023-04-05T13:33:24.491Z","updatedAt":"2023-05-04T15:40:21.505Z","publishedAt":"2023-04-05T13:33:25.249Z","date":"2022-05-25","mediaOutlet":"Blockchain USA"}},{"id":6,"attributes":{"title":"TRAVEL BLOCKCHAIN START-UP CHAIN4TRAVEL APPOINTS ANKE HSU AS BUSINESS DEVELOPMENT HEAD","linkToArticle":"https://www.travolution.com/news/people/travel-blockchain-start-up-chain4travel-appoints-anke-hsu-as-business-development-head/","articleTeaser":"The firm was founded by Peakwork chief executive Ralf Usbeck to build a new 'stable and secure' distribution eco-system for the travel sector\n\nTravel blockchain start-up Chain4Travel has appointed experienced travel technology and distribution executive Anke Hsu as its head of business development.\n\nThe Switzerland-based firm was founded by Ralf Usbeck, the chief executive of Peakwork and former chief of Traveltainment and Amadeus Leisure Group.\n\nIt is building a blockchain-based ecosystem to provide a “stable and secure” platform for B2B and B2C leisure travel products. ","createdAt":"2023-04-05T13:34:14.180Z","updatedAt":"2023-05-04T16:00:41.626Z","publishedAt":"2023-04-05T13:34:32.343Z","date":"2022-06-06","mediaOutlet":"Travolution"}},{"id":7,"attributes":{"title":"Das waren die VIR Online Innovationstage 2022","linkToArticle":"https://v-i-r.de/2022/06/08/ein-rueckblick-ueber-die-vir-online-innovationstage-2022/","articleTeaser":"Am 1. und 2. Juni 2022 war es wieder soweit und der VIR öffnete den knapp 300 Teilnehmerinnen und Teilnehmern die Türen zum Marshall-Haus auf der Messe Berlin, wo die VIR Online Innovationstage nach zwei Jahren Pause wieder wie gewohnt stattfanden. Gemeinsam mit David Ruetz, dem Head of ITB Berlin, eröffnete Vorstand Michael Buller am Mittwochmorgen die Veranstaltung. Nach einem Grußwort des Moderators Gereon Krahn von Berge und Meer startete Hakan Ardic, Vice President Hospitality & Mobility bei Wirelane, mit dem ersten Vortrag des Branchenevents zum Thema nachhaltige Mobilität unter dem Titel „The Future is now: Elektromobilität und steigende Service-Erwartungen unserer Gäste heute und morgen“. Im Anschluss lieferte Dr. Daniel Walden, Partner bei Advant Beiten, fundierte Hintergrundinformationen zum ESG-Rating und zum Lieferkettengesetz.","createdAt":"2023-04-05T13:40:01.519Z","updatedAt":"2023-05-04T15:51:45.927Z","publishedAt":"2023-04-05T13:40:03.101Z","date":"2022-06-06","mediaOutlet":"VIR "}},{"id":8,"attributes":{"title":"Viel Geld und bekannte Köpfe für Chain4Travel","linkToArticle":"https://www.travelnews.ch/travel-tech/21678-viel-geld-und-bekannte-koepfe-fuer-chain4travel.html","articleTeaser":"CEO ist Ralf Usbeck, COO ist Thomas Stirnimann, als IT-Chef konnte Pablo Castillo gewonnen werden, und dazu kommt siebenstelliges Seed-Investment-Geld. Beim Anbieter von \"Blockchain für die Touristik\" läuft es rund.","createdAt":"2023-04-05T13:40:36.446Z","updatedAt":"2023-05-04T16:03:28.458Z","publishedAt":"2023-04-05T13:40:37.052Z","date":"2022-05-24","mediaOutlet":"Travel News"}},{"id":9,"attributes":{"title":"Touristik-Blockchain-Entwickler sammeln Millionen ein","linkToArticle":"https://www.reisevor9.de/marketing/touristik-blockchain-entwickler-sammeln-millionen-ein","articleTeaser":"Rund 4,2 Millionen Euro hat das Start-up Chain4Travel des Peakwork-Gründers Ralf Usbeck in einer Finanzierungsrunde von Investoren eingesammelt. Mit dem Geld will das Unternehmen die Entwicklung und den Start einer branchenspezifischen Blockchain-Lösung für die internationale Touristik finanzieren.","createdAt":"2023-04-05T13:41:31.545Z","updatedAt":"2023-05-04T15:59:56.954Z","publishedAt":"2023-04-05T13:41:32.277Z","date":"2022-05-25","mediaOutlet":"Reise vor 9"}},{"id":10,"attributes":{"title":"COMPANY PROFILE: CHAIN4TRAVEL BIDS TO BE THE TRAVEL OPERATING SYSTEM FOR THE WEB 3.0 REVOLUTION","linkToArticle":"https://www.travolution.com/news/in-depth/company-profiles/company-profile-chain4travel-bids-to-be-the-travel-operating-system-for-the-web-3.0-revolution/","articleTeaser":"Founder Ralf Usbeck says the world is poised for a second technology revolution with blockchain at its heart and the travel sector should ensure its future is in its own hands\n\nIs scepticism about whether blockchain is about to usher in a digital revolution as profound as the internet the equivalent to doubting the potential of the web in the late nineties? \n\nAccording to Chain4Travel founder Ralph Usbeck, there’s no question the world is at a similar point today as it was prior to the first dot.com revolution at the turn of the century.\n\nLast year, Usbeck stepped aside from Peakwork to put a team together to develop what he describes as the operating system for the coming Web 3.0 age built by travel for travel.","createdAt":"2023-04-05T13:42:08.134Z","updatedAt":"2023-05-04T15:46:13.955Z","publishedAt":"2023-04-05T13:42:08.982Z","date":"2022-07-05","mediaOutlet":"Travolution"}},{"id":11,"attributes":{"title":"Revolutioniert Blockchain die Reiseindustrie?","linkToArticle":"https://www.hotellerie-gastronomie.ch/de/artikel/revolutioniert-blockchain-die-reiseindustrie","articleTeaser":"Die Blockchain-Technologie hat viele Branchen in Aufruhr versetzt – auch den Tourismussektor. Die Technologie verändert die Art und Weise, wie Informationen gespeichert und verwendet werden, erhöht die Datensicherheit, verbessert Transaktionen und vereinfacht Kooperationen.","createdAt":"2023-04-05T13:43:26.022Z","updatedAt":"2023-05-04T15:56:37.172Z","publishedAt":"2023-04-05T13:43:26.463Z","date":"2022-07-25","mediaOutlet":"Hotellerie Gastronomie Zeitung"}},{"id":12,"attributes":{"title":"Travel Un’chained’ with blockchain","linkToArticle":"https://www.traveldailymedia.com/travel-unchained-with-blockchain/","articleTeaser":"Blockchain technology is now establishing itself in the international travel industry: Around 230 players from 150 leading international tourism and tech companies representing more than 30 countries came together in Mallorca. They jointly laid the foundations for the further development of the travel industry in Web 3.0. Ralf Usbeck, CEO of Chain4Travel, said: “By 2030, blockchain will be in use in all business areas. There is enormous potential for the travel industry, and we can already present exciting showcases.”\n","createdAt":"2023-04-05T13:44:04.898Z","updatedAt":"2023-05-04T16:01:41.478Z","publishedAt":"2023-04-05T13:44:05.343Z","date":"2022-09-22","mediaOutlet":"Travel Daily"}},{"id":13,"attributes":{"title":"Grosses Potenzial der Blockchain in der Tourismuswelt","linkToArticle":"https://www.travelnews.ch/future/22459-grosses-potenzial-der-blockchain-in-der-tourismuswelt.html","articleTeaser":"Die Blockchain-Veranstaltung «Travel Un‘chained» versammelte in Mallorca internationale Vertreter führender Reise- und Travel-Tech-Unternehmen.","createdAt":"2023-04-05T13:44:36.047Z","updatedAt":"2023-05-04T15:53:31.405Z","publishedAt":"2023-04-05T13:44:36.689Z","date":"2022-09-15","mediaOutlet":"Travel News"}},{"id":14,"attributes":{"title":"\"Steigt in den schon rollenden Blockchain-Zug\"","linkToArticle":"https://www.fvw.de/touristik/technologie/chain4travel-ceo-usbeck-steigt-in-den-schon-rollenden-blockchain-zug-228838?crefresh=1","articleTeaser":"Die Spannung unter Touristikern und Technikexperten war groß. Nun macht ein von der Jungfirma Chain4Travel organisiertes Event deutlich, welche Apps zuerst auf der Camino-Blockchain starten.","createdAt":"2023-04-05T13:45:18.154Z","updatedAt":"2023-05-04T14:08:38.786Z","publishedAt":"2023-04-05T13:45:21.036Z","date":"2022-09-15","mediaOutlet":"fvw"}},{"id":15,"attributes":{"title":"Chain4Travel implements award winning blockchain concept for the travel industry","linkToArticle":"https://www.traveldailynews.com/regional-news/chain4travel-implements-award-winning-blockchain-concept-for-the-travel-industry/","articleTeaser":"The German Travel Industry Club annually recognizes outstanding solutions and players in the travel industry. In the Travel Technology category, Chain4Travel has been awarded for its future-oriented set up of the Camino blockchain for the global travel sector.","createdAt":"2023-04-05T13:46:12.725Z","updatedAt":"2023-05-04T14:22:22.258Z","publishedAt":"2023-04-05T13:46:13.374Z","date":"2023-09-27","mediaOutlet":"Travel Daily News"}},{"id":16,"attributes":{"title":"CFM Media: Das Mysterium Blockchain","linkToArticle":"https://www.touristik-aktuell.de/nachrichten/reisevertrieb/news/datum/2022/11/11/cfm-media-das-mysterium-blockchain/","articleTeaser":"Was ist Blockchain überhaupt und welche Chancen kann die neue Technologie dem Tourismus bieten? Das war eines der Themen des IT-Gipfels von CFM Media.","createdAt":"2023-04-05T13:46:57.988Z","updatedAt":"2023-05-04T14:12:24.837Z","publishedAt":"2023-04-05T13:46:58.630Z","date":"2022-11-11","mediaOutlet":"touristik aktuell"}},{"id":17,"attributes":{"title":"Reiseversicherungspolicen in der Camino Blockchain","linkToArticle":"https://abouttravel.ch/reisebranche/reiseversicherungspolicen-in-der-camino-blockchain/?utm_source=rss&utm_medium=rss&utm_campaign=reiseversicherungspolicen-in-der-camino-blockchain","articleTeaser":"Chain4Travel, Hiberus und Intermundial starten Projekt für das Erstellen von Reiseversicherungspolicen in der Blockchain.\nDas spanische Technologieberatungsunternehmen Hiberus und Chain4Travel arbeiten gemeinsam an einem neuen Projekt, um intelligente Reiseversicherungen über die Camino-Blockchain anzubieten. Dieses Projekt wird für Intermundial durchgeführt, ein auf den Tourismussektor spezialisiertes spanisches Versicherungsunternehmen.\n\n","createdAt":"2023-04-05T13:47:43.471Z","updatedAt":"2023-05-04T15:54:13.726Z","publishedAt":"2023-04-05T13:47:44.143Z","date":"2023-01-26","mediaOutlet":"About travel"}},{"id":18,"attributes":{"title":"Chain4Travel: Blockchain für die Reisebranche sammelt 4,5 Mio. Euro ein","linkToArticle":"https://www.trendingtopics.eu/chain4travel-blockchain-fuer-die-reisebranche-sammelt-45-mio-euro-ein/","articleTeaser":"Eine Blockchain für die Reisebranche: So lautet die Vision der Schweizer Jungfirma Chain4Travel. Das im vergangenen Jahr von Ralf Usbeck gegründete Unternehmen will schon im Oktober seine Blockchain „Camino“ in Betrieb nehmen und diese in eine eigene Stiftung überführen. Durch sie sollen Player aus der Reiseindustrie die Möglichkeit haben, ein gemeinsames Betriebssystem zu nutzen. Das kommt in der Branche gut an: Unternehmen wie Falkensteiner Ventures haben kürzlich in einer Seed-Finanzierung 4,3 Millionen Schweizer Franken (etwa 4,5 Millionen Euro) in Chain4Travel gesteckt.","createdAt":"2023-04-05T13:48:23.536Z","updatedAt":"2023-05-04T15:42:32.529Z","publishedAt":"2023-04-05T13:48:24.287Z","date":"2022-08-22","mediaOutlet":"Trending Topics"}},{"id":19,"attributes":{"title":"Blockchain für die Reiseindustrie: Schweizer Startup sammelt 4,5 Mio. Euro ein","linkToArticle":"https://de.cointelegraph.com/news/blockchain-for-the-travel-industry-swiss-startup-raises-45-million-euros","articleTeaser":"Eine Blockchain für die Reisebranche möchte das Schweizer Startup Chain4Travel ins Leben rufen. Unter dem Namen „Camino“ will das 2021 von Ralf Usbeck gegründete Unternehmen im Oktober die Blockchain in Betrieb nehmen. Wie Trending Topics berichtet, soll der weitere Betrieb des Netzwerks und der Infrastruktur dann durch Industriepartner über eine Stiftung erfolgen. ","createdAt":"2023-04-05T13:49:24.611Z","updatedAt":"2023-05-04T14:10:22.422Z","publishedAt":"2023-04-05T13:49:25.325Z","date":"2022-09-01","mediaOutlet":"Cointelegraph"}},{"id":20,"attributes":{"title":"Erste Tranche der Camino-Token ausverkauft","linkToArticle":"https://www.fvw.de/touristik/technologie/touristische-blockchain-erste-tranche-der-camino-token-ausverkauft-229136","articleTeaser":"Das Blockchain-Start-up Chain4Travel von CEO Ralf Usbeck hat das nächste Etappenziel erreicht. 50 Mio. Camino-Token wurden an Unternehmen und private Investoren aus der Touristik veräußert.","createdAt":"2023-04-05T13:50:14.720Z","updatedAt":"2023-05-04T15:52:31.489Z","publishedAt":"2023-04-05T13:50:16.441Z","date":"2022-09-27","mediaOutlet":"fvw"}},{"id":21,"attributes":{"title":"Chain4Travel: Erste Charge der Camino Token ausverkauft","linkToArticle":"https://abouttravel.ch/reisebranche/chain4travel-erste-charge-der-camino-token-ausverkauft/","articleTeaser":"Das Blockchain-Startup Chain4Travel hat das selbst gesetzte Ziel für den Private Pre-Sale des Camino Token (CAM) erreicht. 50 Millionen Camino Token wurden in einem ersten Verkauf an interessierte Unternehmen und private Investoren aus der Reiseindustrie bereitgestellt. Die Nachfrage bis zum Stichtag 23. September war enorm und so werden die Caminos nun in den kommenden Wochen an die frühen Investoren übertragen. Die Summe entspricht einem Wert von CHF 5 Mio.","createdAt":"2023-04-05T13:50:47.719Z","updatedAt":"2023-05-04T15:43:51.577Z","publishedAt":"2023-04-05T13:50:48.362Z","date":"2022-09-28","mediaOutlet":"About travel"}},{"id":22,"attributes":{"title":"Chain4Travel hat den Verkauf der «Camino Token» gestartet","linkToArticle":"https://www.travelnews.ch/travel-tech/22137-chain4travel-hat-den-verkauf-der-camino-token-gestartet.html","articleTeaser":"Beim Aufbau eines Blockchain-basierten Ökosystems für die globale Reiseindustrie wird auf native Währung gesetzt. Firmen und Privatpersonen sind zum Einsteigen in diese «Revolution des Reisevertriebs» eingeladen.\nIm Mai berichtete Travelnews über das Startup Chain4Travel, ein «Brainchild» von Peakwork-Gründer Ralf Usbeck, welches auf das Prinzip «Blockchain für die Touiristik» setzt. Im Unternehmen sitzen viele prominente Touristiker an Bord - darunter aus der Schweiz etwa Thomas Stirnimann, Pablo Castillo oder Beat Blaser. Und das Team wird stetig erweitert, zuletzt mit Anke Hsu.\n","createdAt":"2023-04-05T13:51:24.525Z","updatedAt":"2023-05-04T14:14:28.732Z","publishedAt":"2023-04-05T13:51:25.151Z","date":"2023-07-29","mediaOutlet":"Travel News"}},{"id":23,"attributes":{"title":"CHAIN4TRAVEL'S CAMINO BLOCKCHAIN TO BE AUDITED BY CYBER EXPERT HEXENS","linkToArticle":"https://www.travolution.com/news/chain4travels-camino-blockchain-to-be-audited-by-cyber-expert-hexens/","articleTeaser":"Details of a hacker bug bounty programme worth up to $50,000 to be revealed later this month\n\nChain4Travel’s Camino blockchain network is to be audited by international cybersecurity specialist Hexens before it goes live.\n\nThe source code and components of the testnet will be security checked by Hexens who will also support Chain4Travel to organise a ‘bug bounty programme’ later this month.\n\nThis will see hackers and security companies worldwide invited to try to attack, penetrate and exploit the Camino blockchain.","createdAt":"2023-04-05T13:51:57.934Z","updatedAt":"2023-05-04T15:45:37.188Z","publishedAt":"2023-04-05T13:51:59.068Z","date":"2023-02-23","mediaOutlet":"Travolution"}},{"id":24,"attributes":{"title":"CHAIN4TRAVEL JOINS TRADE BODY TO PROMOTE CAMINO TRAVEL BLOCKCHAIN IN AUSTRALIA","linkToArticle":"https://www.travolution.com/news/chain4travel-joins-trade-body-to-promote-camino-travel-blockchain-in-australia/","articleTeaser":"Membership of the Tourism Industry Council South Australia reflects the future of travel technology and the sector\n\nChain4Travel has joined the Tourism Industry Council South Australia (TiCSA) to develop opportunities to promote its emerging Camino blockchain network in the country.\n\nThe German tech pioneer is developing a global Web 3.0 travel ecosystem, B2B, B2C, and consumer direct travel product distribution and retailing. \n\nThe Camino blockchain, built specifically for the travel industry is due to go live in the first quarter of 2023. ","createdAt":"2023-04-05T13:52:29.077Z","updatedAt":"2023-05-04T14:24:48.829Z","publishedAt":"2023-04-05T13:52:29.756Z","date":"2023-02-10","mediaOutlet":"Travolution"}},{"id":25,"attributes":{"title":"Chain4Travel: Schweizer Startup will die Reisewelt revolutionieren","linkToArticle":"https://www.handelszeitung.ch/unternehmen/schweizer-startup-chain4travel-will-die-reisewelt-revolutionieren-539256","articleTeaser":"Thomas Stirnimann, Ex-Chef der Hotelplan Group, verheiratet Tourismus und die Blockchain. Wem das was nützen soll – die Hintergründe.\nEr könnte golfen, er könnte seinen Wein-Wissensdurst löschen, er könnte Rosen züchten. Aber das will er nicht. Was Thomas Stirnimann, 60, will: Als Non-Techie die Reisetechnologie verändern.","createdAt":"2023-04-05T13:53:22.748Z","updatedAt":"2023-05-04T15:44:56.781Z","publishedAt":"2023-04-05T13:53:23.552Z","date":"2022-10-15","mediaOutlet":"Handelszeitung"}},{"id":26,"attributes":{"title":"Cyber-Spezialist Hexens prüft Camino vor dem Start","linkToArticle":"https://www.fvw.de/touristik/technologie/touristik-blockchain-cyber-spezialist-hexens-prueft-camino-vor-dem-start-232384","articleTeaser":"Lässt die Camino-Blockchain vor dem Go-Live auf Schwachstellen testen: Pablo Castillo, CTO von Chain4Travel.\nDas Start-up Chain4Travel lässt seine Camino-Blockchain von dem Spezialisten für Cyber-Sicherheit Hexens testen. Noch im Februar soll zudem eine Art Kopfgeldjagd zum Aufspüren von Fehlern starten.","createdAt":"2023-04-05T13:53:57.636Z","updatedAt":"2023-05-04T15:46:45.964Z","publishedAt":"2023-04-05T13:53:58.690Z","date":"2023-02-17","mediaOutlet":"fvw"}}],"meta":{"pagination":{"page":1,"pageSize":25,"pageCount":2,"total":26}}}